%YAML 1.1
%TAG !u! tag:unity3d.com,2011:
--- !u!1 &6776227711359644044
GameObject:
  m_ObjectHideFlags: 0
  m_CorrespondingSourceObject: {fileID: 0}
  m_PrefabInstance: {fileID: 0}
  m_PrefabAsset: {fileID: 0}
  serializedVersion: 6
  m_Component:
  - component: {fileID: 6776227711359644045}
  - component: {fileID: 6776227711359644042}
  m_Layer: 0
  m_Name: Shield_Favor
  m_TagString: Untagged
  m_Icon: {fileID: 0}
  m_NavMeshLayer: 0
  m_StaticEditorFlags: 0
  m_IsActive: 1
--- !u!4 &6776227711359644045
Transform:
  m_ObjectHideFlags: 0
  m_CorrespondingSourceObject: {fileID: 0}
  m_PrefabInstance: {fileID: 0}
  m_PrefabAsset: {fileID: 0}
  m_GameObject: {fileID: 6776227711359644044}
  m_LocalRotation: {x: -0, y: -0, z: -0, w: 1}
  m_LocalPosition: {x: 12.987219, y: 39.240322, z: -166.14746}
  m_LocalScale: {x: 1.2509773, y: 1.2509773, z: 1.2509773}
  m_Children: []
  m_Father: {fileID: 0}
  m_RootOrder: 0
  m_LocalEulerAnglesHint: {x: 0, y: 0, z: 0}
--- !u!114 &6776227711359644042
MonoBehaviour:
  m_ObjectHideFlags: 0
  m_CorrespondingSourceObject: {fileID: 0}
  m_PrefabInstance: {fileID: 0}
  m_PrefabAsset: {fileID: 0}
  m_GameObject: {fileID: 6776227711359644044}
  m_Enabled: 1
  m_EditorHideFlags: 0
  m_Script: {fileID: 11500000, guid: 64cd758028933ae47ba13f40e2c4a6df, type: 3}
  m_Name: 
  m_EditorClassIdentifier: 
  isToken: 1
  face: {fileID: 21300000, guid: 49f9694801927854f83bacbe5a3351f5, type: 3}
