%YAML 1.1
%TAG !u! tag:unity3d.com,2011:
--- !u!1 &657083001312477971
GameObject:
  m_ObjectHideFlags: 0
  m_CorrespondingSourceObject: {fileID: 0}
  m_PrefabInstance: {fileID: 0}
  m_PrefabAsset: {fileID: 0}
  serializedVersion: 6
  m_Component:
  - component: {fileID: 657083001312477968}
  - component: {fileID: 657083001312477982}
  - component: {fileID: 657083001312477969}
  - component: {fileID: 657083001312477983}
  m_Layer: 5
  m_Name: Die5
  m_TagString: Untagged
  m_Icon: {fileID: 0}
  m_NavMeshLayer: 0
  m_StaticEditorFlags: 0
  m_IsActive: 1
--- !u!224 &657083001312477968
RectTransform:
  m_ObjectHideFlags: 0
  m_CorrespondingSourceObject: {fileID: 0}
  m_PrefabInstance: {fileID: 0}
  m_PrefabAsset: {fileID: 0}
  m_GameObject: {fileID: 657083001312477971}
  m_LocalRotation: {x: 0, y: 0, z: 0, w: 1}
  m_LocalPosition: {x: 0, y: 0, z: 0}
  m_LocalScale: {x: 1, y: 1, z: 1}
  m_Children: []
  m_Father: {fileID: 0}
  m_RootOrder: 0
  m_LocalEulerAnglesHint: {x: 0, y: 0, z: 0}
  m_AnchorMin: {x: 0.5, y: 0.5}
  m_AnchorMax: {x: 0.5, y: 0.5}
  m_AnchoredPosition: {x: -406, y: -330}
  m_SizeDelta: {x: 128, y: 128}
  m_Pivot: {x: 0.5, y: 0.5}
--- !u!222 &657083001312477982
CanvasRenderer:
  m_ObjectHideFlags: 0
  m_CorrespondingSourceObject: {fileID: 0}
  m_PrefabInstance: {fileID: 0}
  m_PrefabAsset: {fileID: 0}
  m_GameObject: {fileID: 657083001312477971}
  m_CullTransparentMesh: 0
--- !u!114 &657083001312477969
MonoBehaviour:
  m_ObjectHideFlags: 0
  m_CorrespondingSourceObject: {fileID: 0}
  m_PrefabInstance: {fileID: 0}
  m_PrefabAsset: {fileID: 0}
  m_GameObject: {fileID: 657083001312477971}
  m_Enabled: 1
  m_EditorHideFlags: 0
  m_Script: {fileID: 11500000, guid: fe87c0e1cc204ed48ad3b37840f39efc, type: 3}
  m_Name: 
  m_EditorClassIdentifier: 
  m_Material: {fileID: 0}
  m_Color: {r: 1, g: 1, b: 1, a: 1}
  m_RaycastTarget: 1
  m_RaycastPadding: {x: 0, y: 0, z: 0, w: 0}
  m_Maskable: 1
  m_OnCullStateChanged:
    m_PersistentCalls:
      m_Calls: []
  m_Sprite: {fileID: 21300000, guid: e72bda3cbcf58ba4f864a538a0af6362, type: 3}
  m_Type: 0
  m_PreserveAspect: 0
  m_FillCenter: 1
  m_FillMethod: 4
  m_FillAmount: 1
  m_FillClockwise: 1
  m_FillOrigin: 0
  m_UseSpriteMesh: 0
  m_PixelsPerUnitMultiplier: 1
--- !u!114 &657083001312477983
MonoBehaviour:
  m_ObjectHideFlags: 0
  m_CorrespondingSourceObject: {fileID: 0}
  m_PrefabInstance: {fileID: 0}
  m_PrefabAsset: {fileID: 0}
  m_GameObject: {fileID: 657083001312477971}
  m_Enabled: 1
  m_EditorHideFlags: 0
  m_Script: {fileID: 11500000, guid: caade339b0d4c764d81d4024d07f3140, type: 3}
  m_Name: 
  m_EditorClassIdentifier: 
  dieLockIndicator0: {fileID: 0}
  faces: {fileID: 2964008138708995936, guid: 8dbe40ac37b9df245a74dbf41f261a29, type: 3}
  dieFace: {fileID: 657083001312477969}
  CurrentFace: {fileID: 0}
  godFavor: 
  dieFaces:
  - {fileID: 7343337600401379664, guid: b06a60cec62b91b4aa79d9b4e0636cba, type: 3}
  - {fileID: 1813134993488056284, guid: 3ca38c35778ac5845b168aeb095a8162, type: 3}
  - {fileID: 6776227711359644042, guid: 9eb914ca71a79554db9cb5ea5f08a507, type: 3}
  - {fileID: 7343337600401379664, guid: b06a60cec62b91b4aa79d9b4e0636cba, type: 3}
  - {fileID: 4335579899722850931, guid: 766bde754fb5ab74ca8220a187cb61a9, type: 3}
  - {fileID: 7591667454010159582, guid: ace60d9bb88636142a7f557c80040344, type: 3}
